{
  "banda": {
    "nome1": "Bon Jovi",
    "estilo1": "Hardrock",
    "anoFormacao1": "1982",
    "origem1": "EUA",
    "musica1": "Livin' on a Prayer",
    "album1": "New Jersey",
    "vocal1": "Jon Bon Jovi",
    "guitar1": "Richie Sambora",
    "bass1": "Alec John Such",
    "keybords1": "David Bryan",
    "drums1": "Tico Torres",
    "site1": "www.bonjovi.com",
    "gravadora1": "Mercury Records",
    "nome2": "Aerosmith",
    "estilo2": "Hardrock",
    "anoFormacao2": "1970",
    "origem2": "EUA",
    "musica2": "Dream on",
    "album2": "Pump",
    "vocal2": "Steven Tyler",
    "guitar2": "Joe Perry e Brad Whitford",
    "bass2": "Tom Hamilton",
    "drums2": "Joey Kramer",
    "site2": "www.aerosmith.com",
    "gravadora2": "Columbia Records",
    "aluno": "Priscilla Souza Valciano",
    "ra": "3015201030"
  }
}